project title
…
Rows: 72 Columns: 4
── Column specification ────────────────────────────────────────────────────────
Delimiter: ","
chr (3): Month, Criminality, Agency
dbl (1): Daily Population

ℹ Use `spec()` to retrieve the full column specification for this data.
ℹ Specify the column types or set `show_col_types = FALSE` to quiet this message.

Detention_Data_2025

# A tibble: 72 × 4
   Month   Criminality                Agency  `Daily Population`
   <chr>   <chr>                      <chr>                <dbl>
 1 October Total                      CBP                   2443
 2 October Convicted Criminal         CBP                    137
 3 October Pending Criminal Charges   CBP                    741
 4 October Other Immigration Violator CBP                  22319
 5 October Total                      ICE                  14284
 6 October Convicted Criminal         ICE                   9242
 7 October Pending Criminal Charges   ICE                   4169
 8 October Other Immigration Violator ICE                    873
 9 October Total                      Average              38714
10 October Convicted Criminal         Average              10611
# ℹ 62 more rows
…
